{
    "clocks": 2,
    "states":
    [
        {"name": "l_0", "initial": true,   "accepting": false, "secret": false},
        {"name": "l_1", "initial": false,  "accepting": false, "secret": false},
        {"name": "l_2", "initial": false,  "accepting": false, "secret": false},
        {"name": "l_3", "initial": false,  "accepting": false, "secret": false},
        {"name": "l_4", "initial": false,  "accepting": false, "secret": false},
        {"name": "l_5", "initial": false,  "accepting": false, "secret": false},
        {"name": "l_6", "initial": false,  "accepting": true,  "secret": false},
        {"name": "l_7", "initial": false,  "accepting": false, "secret": false},
        {"name": "l_8", "initial": false,  "accepting": false, "secret": false},
        {"name": "l_9", "initial": false,  "accepting": false, "secret": false},
        {"name": "l_10", "initial": false, "accepting": false, "secret": false},
        {"name": "l_11", "initial": false, "accepting": false, "secret": true},
        {"name": "l_12", "initial": false, "accepting": false, "secret": true},
        {"name": "l_13", "initial": false, "accepting": false, "secret": false},
        {"name": "l_14", "initial": false, "accepting": false, "secret": false},
        {"name": "l_15", "initial": false, "accepting": true,  "secret": false},
        {"name": "l_16", "initial": false, "accepting": true,  "secret": false},
        {"name": "l_17", "initial": false, "accepting": true,  "secret": false}
    ],
    "transitions":
    [
        {"origin": "l_0" , "symbol": "aut"  , "guards": [{"clock": 0, "lower": 0, "upper": 2},      {"clock": 1, "lower": 0,  "upper": 99999}], "resets": [],  "target": "l_1"},
        {"origin": "l_0" , "symbol": "to"   , "guards": [{"clock": 0, "lower": 3, "upper": 99999},  {"clock": 1, "lower": 0,  "upper": 99999}], "resets": [],  "target": "l_17"},
        {"origin": "l_1" , "symbol": "to"   , "guards": [{"clock": 0, "lower": 11, "upper": 99999}, {"clock": 1, "lower": 0,  "upper": 99999}], "resets": [0], "target": "l_0"},
        {"origin": "l_1" , "symbol": "p_c"  , "guards": [{"clock": 0, "lower": 2, "upper": 10},     {"clock": 1, "lower": 0,  "upper": 99999}], "resets": [1], "target": "l_2"},
        {"origin": "l_2" , "symbol": "c_cp" , "guards": [{"clock": 0, "lower": 0, "upper": 99999},  {"clock": 1, "lower": 4,  "upper": 99999}], "resets": [0], "target": "l_3"},
        {"origin": "l_2" , "symbol": "p_cp" , "guards": [{"clock": 0, "lower": 0, "upper": 99999},  {"clock": 1, "lower": 0,  "upper": 99999}], "resets": [],  "target": "l_7"},
        {"origin": "l_2" , "symbol": "p_cp" , "guards": [{"clock": 0, "lower": 0, "upper": 99999},  {"clock": 1, "lower": 0,  "upper": 99999}], "resets": [],  "target": "l_8"},
        {"origin": "l_3" , "symbol": "pr_cp", "guards": [{"clock": 0, "lower": 1, "upper": 99999},  {"clock": 1, "lower": 0,  "upper": 99999}], "resets": [],  "target": "l_4"},
        {"origin": "l_4" , "symbol": "pd_cp", "guards": [{"clock": 0, "lower": 0, "upper": 10},     {"clock": 1, "lower": 0,  "upper": 99999}], "resets": [],  "target": "l_5"},
        {"origin": "l_5" , "symbol": "e_cp" , "guards": [{"clock": 0, "lower": 11, "upper": 13},    {"clock": 1, "lower": 0,  "upper": 99999}], "resets": [],  "target": "l_6"},
        {"origin": "l_7" , "symbol": "r_c1" , "guards": [{"clock": 0, "lower": 0, "upper": 99999},  {"clock": 1, "lower": 11, "upper": 99999}], "resets": [1],  "target": "l_2"},
        {"origin": "l_7" , "symbol": "c_c1" , "guards": [{"clock": 0, "lower": 0, "upper": 99999},  {"clock": 1, "lower": 5,  "upper": 99999}], "resets": [],  "target": "l_9"},
        {"origin": "l_8" , "symbol": "r_c2" , "guards": [{"clock": 0, "lower": 0, "upper": 99999},  {"clock": 1, "lower": 20, "upper": 99999}], "resets": [1], "target": "l_2"},
        {"origin": "l_8" , "symbol": "c_c2" , "guards": [{"clock": 0, "lower": 0, "upper": 99999},  {"clock": 1, "lower": 6, "upper": 99999}],  "resets": [],  "target": "l_10"},
        {"origin": "l_9" , "symbol": "c_cp" , "guards": [{"clock": 0, "lower": 0, "upper": 99999},  {"clock": 1, "lower": 0, "upper": 10}],     "resets": [1], "target": "l_11"},
        {"origin": "l_10", "symbol": "c_cp" , "guards": [{"clock": 0, "lower": 0, "upper": 99999},  {"clock": 1, "lower": 0, "upper": 99999}],  "resets": [1], "target": "l_12"},
        {"origin": "l_11", "symbol": "p_c1" , "guards": [{"clock": 0, "lower": 0, "upper": 99999},  {"clock": 1, "lower": 2, "upper": 99999}],  "resets": [],  "target": "l_13"},
        {"origin": "l_12", "symbol": "p_c2" , "guards": [{"clock": 0, "lower": 0, "upper": 99999},  {"clock": 1, "lower": 3, "upper": 99999}],  "resets": [],  "target": "l_14"},
        {"origin": "l_13", "symbol": "pd_cp", "guards": [{"clock": 0, "lower": 0, "upper": 99999},  {"clock": 1, "lower": 0, "upper": 8}],      "resets": [],  "target": "l_15"},
        {"origin": "l_14", "symbol": "pd_cp", "guards": [{"clock": 0, "lower": 0, "upper": 99999},  {"clock": 1, "lower": 0, "upper": 15}],     "resets": [],  "target": "l_16"}
    
    ]
}